%YAML 1.1
%TAG !u! tag:unity3d.com,2011:
--- !u!78 &1
TagManager:
  serializedVersion: 2
  tags: []
  layers:
  - Default
  - TransparentFX
  - Ignore Raycast
  - 
  - Water
  - UI
  - 
  - 
  - Character
  - Interactable
  - Trigger
  - Damagable
  - Ground
  - Ghost
  - Floor
  - Environment
  - StaticProp
  - SenseDetection
  - Infected
  - InfectedDetection
  - Ceiling
  - Ragdoll
  - 
  - 
  - 
  - 
  - 
  - 
  - 
  - 
  - 
  - 
  m_SortingLayers:
  - name: Default
    uniqueID: 0
    locked: 0
